mini-project-2
…
2.2 (5 points)

Now, if your data is tidy, untidy it! Then, tidy it back to its original state.

If your data is untidy, then tidy it! Then, untidy it back to its original state.

Be sure to explain your reasoning for this task. Show us the before and after.

(cancer_sample_untidy <- cancer_sample %>%
    pivot_wider(id_cols = c(-radius_mean), 
                names_from = diagnosis,
                values_from = radius_mean)
 )

## # A tibble: 569 x 32
##        ID texture_mean perimeter_mean area_mean smoothness_mean compactness_mean
##     <dbl>        <dbl>          <dbl>     <dbl>           <dbl>            <dbl>
##  1 8.42e5         10.4          123.      1001           0.118            0.278 
##  2 8.43e5         17.8          133.      1326           0.0847           0.0786
##  3 8.43e7         21.2          130       1203           0.110            0.160 
##  4 8.43e7         20.4           77.6      386.          0.142            0.284 
##  5 8.44e7         14.3          135.      1297           0.100            0.133 
##  6 8.44e5         15.7           82.6      477.          0.128            0.17  
##  7 8.44e5         20.0          120.      1040           0.0946           0.109 
##  8 8.45e7         20.8           90.2      578.          0.119            0.164 
##  9 8.45e5         21.8           87.5      520.          0.127            0.193 
## 10 8.45e7         24.0           84.0      476.          0.119            0.240 
## # ... with 559 more rows, and 26 more variables: concavity_mean <dbl>,
## #   concave_points_mean <dbl>, symmetry_mean <dbl>,
## #   fractal_dimension_mean <dbl>, radius_se <dbl>, texture_se <dbl>,
## #   perimeter_se <dbl>, area_se <dbl>, smoothness_se <dbl>,
## #   compactness_se <dbl>, concavity_se <dbl>, concave_points_se <dbl>,
## #   symmetry_se <dbl>, fractal_dimension_se <dbl>, radius_worst <dbl>,
## #   texture_worst <dbl>, perimeter_worst <dbl>, area_worst <dbl>,
## #   smoothness_worst <dbl>, compactness_worst <dbl>, concavity_worst <dbl>,
## #   concave_points_worst <dbl>, symmetry_worst <dbl>,
## #   fractal_dimension_worst <dbl>, M <dbl>, B <dbl>

This dataframe is untidy because there is no value in many cells for columns M and B.

(cancer_sample_tidy <- cancer_sample_untidy %>% 
  pivot_longer(cols = c(M,B), 
               values_drop_na = TRUE,
               names_to  = "diagnosis", 
               values_to = "raduis_mean"))

## # A tibble: 569 x 32
##        ID texture_mean perimeter_mean area_mean smoothness_mean compactness_mean
##     <dbl>        <dbl>          <dbl>     <dbl>           <dbl>            <dbl>
##  1 8.42e5         10.4          123.      1001           0.118            0.278 
##  2 8.43e5         17.8          133.      1326           0.0847           0.0786
##  3 8.43e7         21.2          130       1203           0.110            0.160 
##  4 8.43e7         20.4           77.6      386.          0.142            0.284 
##  5 8.44e7         14.3          135.      1297           0.100            0.133 
##  6 8.44e5         15.7           82.6      477.          0.128            0.17  
##  7 8.44e5         20.0          120.      1040           0.0946           0.109 
##  8 8.45e7         20.8           90.2      578.          0.119            0.164 
##  9 8.45e5         21.8           87.5      520.          0.127            0.193 
## 10 8.45e7         24.0           84.0      476.          0.119            0.240 
## # ... with 559 more rows, and 26 more variables: concavity_mean <dbl>,
## #   concave_points_mean <dbl>, symmetry_mean <dbl>,
## #   fractal_dimension_mean <dbl>, radius_se <dbl>, texture_se <dbl>,
## #   perimeter_se <dbl>, area_se <dbl>, smoothness_se <dbl>,
## #   compactness_se <dbl>, concavity_se <dbl>, concave_points_se <dbl>,
## #   symmetry_se <dbl>, fractal_dimension_se <dbl>, radius_worst <dbl>,
## #   texture_worst <dbl>, perimeter_worst <dbl>, area_worst <dbl>,
## #   smoothness_worst <dbl>, compactness_worst <dbl>, concavity_worst <dbl>,
## #   concave_points_worst <dbl>, symmetry_worst <dbl>,
…
I again put it tidy format using pivot_longer.

2.3 (5 points)

Now, you should be more familiar with your data, and also have made progress in answering your research questions. Based on your interest, and your analyses, pick 2 of the 4 research questions to continue your analysis in milestone 3, and explain your decision.

Try to choose a version of your data that you think will be appropriate to answer these 2 questions in milestone 3. Use between 4 and 8 functions that weve covered so far (i.e.by filtering, cleaning, tidying, dropping irrelvant columns, etc.). Save this tibble as an .RDS object with the function saveRDS().

(cancer_sample_two <- cancer_sample[,c(1:12)]  %>% 
   drop_na()%>% 
   filter(radius_mean<22)
 )

## # A tibble: 555 x 12
##        ID diagnosis radius_mean texture_mean perimeter_mean area_mean
##     <dbl> <chr>           <dbl>        <dbl>          <dbl>     <dbl>
##  1 8.42e5 M                18.0         10.4          123.      1001 
##  2 8.43e5 M                20.6         17.8          133.      1326 
##  3 8.43e7 M                19.7         21.2          130       1203 
##  4 8.43e7 M                11.4         20.4           77.6      386.
##  5 8.44e7 M                20.3         14.3          135.      1297 
##  6 8.44e5 M                12.4         15.7           82.6      477.
##  7 8.44e5 M                18.2         20.0          120.      1040 
##  8 8.45e7 M                13.7         20.8           90.2      578.
##  9 8.45e5 M                13           21.8           87.5      520.
## 10 8.45e7 M                12.5         24.0           84.0      476.
## # ... with 545 more rows, and 6 more variables: smoothness_mean <dbl>,
## #   compactness_mean <dbl>, concavity_mean <dbl>, concave_points_mean <dbl>,
## #   symmetry_mean <dbl>, fractal_dimension_mean <dbl>
…
